{
  "project_info": {
    "project_number": "546362479416",
    "firebase_url": "https://galleryimageupload-89bd0.firebaseio.com",
    "project_id": "galleryimageupload-89bd0",
    "storage_bucket": "galleryimageupload-89bd0.appspot.com"
  },
  "client": [
    {
      "client_info": {
        "mobilesdk_app_id": "1:546362479416:android:ee664c54adc1a7e4",
        "android_client_info": {
          "package_name": "com.gallery.upload"
        }
      },
      "oauth_client": [
        {
          "client_id": "546362479416-o5f6j39htkiu33k8mud9pu3njt8o532s.apps.googleusercontent.com",
          "client_type": 1,
          "android_info": {
            "package_name": "com.gallery.upload",
            "certificate_hash": "87f4ee709a24bf2ce05be811cc4dcc6c2c82b4b6"
          }
        },
        {
          "client_id": "546362479416-qb32g3dgukiln3kn4olg4030gnjmbel3.apps.googleusercontent.com",
          "client_type": 3
        }
      ],
      "api_key": [
        {
          "current_key": "AIzaSyAl7d3Pz24uxFgGvCMeEpo-s0GjK4uSUGk"
        }
      ],
      "services": {
        "appinvite_service": {
          "other_platform_oauth_client": [
            {
              "client_id": "546362479416-qb32g3dgukiln3kn4olg4030gnjmbel3.apps.googleusercontent.com",
              "client_type": 3
            }
          ]
        }
      }
    },
    {
      "client_info": {
        "mobilesdk_app_id": "1:546362479416:android:89f4faef051aee2b1227cd",
        "android_client_info": {
          "package_name": "com.spark.imageupload"
        }
      },
      "oauth_client": [
        {
          "client_id": "546362479416-24675bqa70nnkc8bq5q1o4c42i8ogh29.apps.googleusercontent.com",
          "client_type": 1,
          "android_info": {
            "package_name": "com.spark.imageupload",
            "certificate_hash": "b08018a50033f6a40b66d5ceed9d555f7ffdf93a"
          }
        },
        {
          "client_id": "546362479416-qb32g3dgukiln3kn4olg4030gnjmbel3.apps.googleusercontent.com",
          "client_type": 3
        }
      ],
      "api_key": [
        {
          "current_key": "AIzaSyAl7d3Pz24uxFgGvCMeEpo-s0GjK4uSUGk"
        }
      ],
      "services": {
        "appinvite_service": {
          "other_platform_oauth_client": [
            {
              "client_id": "546362479416-qb32g3dgukiln3kn4olg4030gnjmbel3.apps.googleusercontent.com",
              "client_type": 3
            }
          ]
        }
      }
    }
  ],
  "configuration_version": "1"
}